// Mem file initialization records.
//
// SW Build 2258646 on Thu Jun 14 20:02:38 MDT 2018
// Vivado v2018.2 (64-bit)
// Copyright 1986-2018 Xilinx, Inc. All Rights Reserved.
// Created on Thursday May 30, 2019 - 11:36:33 am, from:
//
//     Map file     - /home/quartus/lpsc/Mandelbrot/ips/vivado/ublaze/2018.2/ublaze.srcs/sources_1/bd/ublaze_sopc/ublaze_sopc.bmm
//     Data file(s) - /home/quartus/lpsc/Mandelbrot/ips/vivado/ublaze/2018.2/ublaze.srcs/sources_1/bd/ublaze_sopc/ip/ublaze_sopc_microblaze_0_0/data/mb_bootloop_le.elf
//
// Address space 'UBlazeCDxB.UblazeSoPCxI_UblazeSoPCxB.UblazeCorexI_ublaze_core.UBlazeCDxB.UblazeSoPCxI_UblazeSoPCxB.UblazeCorexI_ublaze_bram_ADDR_SPACE', bit lane [31:0].
//
// Bus width = 32 bits, number of bus blocks = 1.

@00000000
    B8000000
